…
```r
d <- cc_match_ichthyo_by_name(
  "Sardinops sagax",
  env_var        = "temperature",
  life_stage     = "larva",
  date_min       = "2018-01-01",
  date_max       = "2018-03-31",
  relax_matching = TRUE)
```

```r
d[, c("scientific_name", "life_stage", "bio_datetime",
      "bio_value", "n_env", "env_value", "dist_km", "time_diff_hr")]
#> # A tibble: 13 × 8
#>   scientific_name life_stage bio_datetime        bio_value n_env env_value dist_km time_diff_hr
#>   <chr>           <chr>      <dttm>                  <dbl> <dbl>     <dbl>   <dbl>        <dbl>
#> 1 Sardinops sagax larva      2018-02-05 00:44:00     116.     34      11.4   0.167         1.39
#> 2 Sardinops sagax larva      2018-02-05 06:03:00      17.8    30      10.5   0.225         1.21
#> 3 Sardinops sagax larva      2018-02-07 09:56:00     120.     33      10.4   …             …
#> # … 10 more rows
```
…
